{
    "$schema": "http://json-schema.org/draft-04/schema#",
    "title": "PARMS: relion.autopick.topaz.pick",
    "description": "Reference-free autopicking using Topaz",
    "type": "object",
    "properties": {
        "fn_input_autopick": {
            "description": "Input micrographs for autopick:",
            "type": "string"
        },
        "angpix": {
            "description": "Pixel size in micrographs (A)",
            "type": "number"
        },
        "do_write_fom_maps": {
            "description": "Write FOM maps?",
            "type": "boolean"
        },
        "do_read_fom_maps": {
            "description": "Read FOM maps?",
            "type": "boolean"
        },
        "shrink": {
            "description": "Shrink factor:",
            "type": "number"
        },
        "use_gpu": {
            "description": "Use GPU acceleration?",
            "type": "boolean"
        },
        "gpu_ids": {
            "description": "Which GPUs to use:",
            "type": "string"
        },
        "nr_mpi": {
            "description": "Number of MPI procs:",
            "type": "integer"
        },
        "do_queue": {
            "description": "Submit to queue?",
            "type": "boolean"
        },
        "queuename": {
            "description": "Queue name:",
            "type": "string"
        },
        "qsub": {
            "description": "Queue submit command:",
            "type": "string"
        },
        "qsubscript": {
            "description": "Standard submission script:",
            "type": "string"
        },
        "min_dedicated": {
            "description": "Minimum dedicated cores per node:",
            "type": "integer"
        },
        "other_args": {
            "description": "Additional arguments:",
            "type": "string"
        },
        "fn_topaz_exec": {
            "description": "Topaz executable",
            "type": "string"
        },
        "topaz_particle_diameter": {
            "description": "Particle diameter (A)",
            "type": "number"
        },
        "topaz_nr_particles": {
            "description": "Nr of particles per micrograph:",
            "type": "integer"
        },
        "topaz_model": {
            "description": "Trained topaz model:",
            "type": "string"
        },
        "topaz_other_args": {
            "description": "Additional topaz arguments:",
            "type": "string"
        }
    }
}