{
  "$schema": "http://json-schema.org/draft-04/schema#",
  "title": "PARMS: proshade.symmetry",
  "description": "Local symmetry detection",
  "type": "object",
  "properties": {
    "input_map": {
      "description": "Input map",
      "type": "string"
    },
    "point_sym": {
      "description": "Expected symmetry",
      "type": "string"
    },
    "do_queue": {
      "description": "Submit to queue?",
      "type": "boolean"
    },
    "queuename": {
      "description": "Queue name:",
      "type": "string"
    },
    "qsub": {
      "description": "Queue submit command:",
      "type": "string"
    },
    "qsubscript": {
      "description": "Standard submission script:",
      "type": "string"
    },
    "min_dedicated": {
      "description": "Minimum dedicated cores per node:",
      "type": "integer"
    },
    "other_args": {
      "description": "Additional arguments:",
      "type": "string"
    }
  }
}
