{
    "$schema": "http://json-schema.org/draft-04/schema#",
    "title": "PARMS: relion.class2d.em.helical",
    "description": "Reference-free classification in 2D for overlapping helical segments",
    "type": "object",
    "properties": {
        "fn_cont": {
            "description": "Continue from here:",
            "type": "string"
        },
        "do_ctf_correction": {
            "description": "Do CTF-correction?",
            "type": "boolean"
        },
        "ctf_intact_first_peak": {
            "description": "Ignore CTFs until first peak?",
            "type": "boolean"
        },
        "nr_classes": {
            "description": "Number of classes:",
            "type": "integer"
        },
        "tau_fudge": {
            "description": "Regularisation parameter T:",
            "type": "number"
        },
        "nr_iter_em": {
            "description": "Number of iterations:",
            "type": "integer"
        },
        "particle_diameter": {
            "description": "Mask diameter (A):",
            "type": "number"
        },
        "do_zero_mask": {
            "description": "Mask individual particles with zeros?",
            "type": "boolean"
        },
        "highres_limit": {
            "description": "Limit resolution E-step to (A):",
            "type": "number"
        },
        "do_center": {
            "description": "Center class averages?",
            "type": "boolean"
        },
        "dont_skip_align": {
            "description": "Perform image alignment?",
            "type": "boolean"
        },
        "psi_sampling": {
            "description": "In-plane angular sampling:",
            "type": "number"
        },
        "offset_range": {
            "description": "Offset search range (pix):",
            "type": "number"
        },
        "offset_step": {
            "description": "Offset search step (pix):",
            "type": "number"
        },
        "allow_coarser": {
            "description": "Allow coarser sampling?",
            "type": "boolean"
        },
        "nr_pool": {
            "description": "Number of pooled particles:",
            "type": "integer"
        },
        "do_parallel_discio": {
            "description": "Use parallel disc I/O?",
            "type": "boolean"
        },
        "do_preread_images": {
            "description": "Pre-read all particles into RAM?",
            "type": "boolean"
        },
        "scratch_dir": {
            "description": "Copy particles to scratch directory:",
            "type": "string"
        },
        "do_combine_thru_disc": {
            "description": "Combine iterations through disc?",
            "type": "boolean"
        },
        "use_gpu": {
            "description": "Use GPU acceleration?",
            "type": "boolean"
        },
        "gpu_ids": {
            "description": "Which GPUs to use:",
            "type": "string"
        },
        "nr_mpi": {
            "description": "Number of MPI procs:",
            "type": "integer"
        },
        "nr_threads": {
            "description": "Number of threads:",
            "type": "integer"
        },
        "do_queue": {
            "description": "Submit to queue?",
            "type": "boolean"
        },
        "queuename": {
            "description": "Queue name:",
            "type": "string"
        },
        "qsub": {
            "description": "Queue submit command:",
            "type": "string"
        },
        "qsubscript": {
            "description": "Standard submission script:",
            "type": "string"
        },
        "min_dedicated": {
            "description": "Minimum dedicated cores per node:",
            "type": "integer"
        },
        "other_args": {
            "description": "Additional arguments:",
            "type": "string"
        },
        "fn_img": {
            "description": "Input images STAR file:",
            "type": "string"
        },
        "helical_tube_outer_diameter": {
            "description": "Tube diameter (A):",
            "type": "number"
        },
        "do_bimodal_psi": {
            "description": "Do bimodal angular searches?",
            "type": "boolean"
        },
        "range_psi": {
            "description": "Angular search range - psi (deg):",
            "type": "number"
        },
        "do_restrict_xoff": {
            "description": "Restrict helical offsets to rise:",
            "type": "boolean"
        },
        "helical_rise": {
            "description": "Helical rise (A):",
            "type": "number"
        }
    }
}