{
    "$schema": "http://json-schema.org/draft-04/schema#",
    "title": "PARMS: relion.autopick.ref2d",
    "description": "Autopicking with a set of 2-dimensional references",
    "type": "object",
    "properties": {
        "fn_input_autopick": {
            "description": "Input micrographs for autopick:",
            "type": "string"
        },
        "angpix": {
            "description": "Pixel size in micrographs (A)",
            "type": "number"
        },
        "do_write_fom_maps": {
            "description": "Write FOM maps?",
            "type": "boolean"
        },
        "do_read_fom_maps": {
            "description": "Read FOM maps?",
            "type": "boolean"
        },
        "shrink": {
            "description": "Shrink factor:",
            "type": "number"
        },
        "use_gpu": {
            "description": "Use GPU acceleration?",
            "type": "boolean"
        },
        "gpu_ids": {
            "description": "Which GPUs to use:",
            "type": "string"
        },
        "nr_mpi": {
            "description": "Number of MPI procs:",
            "type": "integer"
        },
        "do_queue": {
            "description": "Submit to queue?",
            "type": "boolean"
        },
        "queuename": {
            "description": "Queue name:",
            "type": "string"
        },
        "qsub": {
            "description": "Queue submit command:",
            "type": "string"
        },
        "qsubscript": {
            "description": "Standard submission script:",
            "type": "string"
        },
        "min_dedicated": {
            "description": "Minimum dedicated cores per node:",
            "type": "integer"
        },
        "other_args": {
            "description": "Additional arguments:",
            "type": "string"
        },
        "fn_refs_autopick": {
            "description": "2D references:",
            "type": "string"
        },
        "do_invert_refs": {
            "description": "References have inverted contrast?",
            "type": "boolean"
        },
        "do_ctf_autopick": {
            "description": "Are References CTF corrected?",
            "type": "boolean"
        },
        "do_ignore_first_ctfpeak_autopick": {
            "description": "Ignore CTFs until first peak?",
            "type": "boolean"
        },
        "lowpass": {
            "description": "Lowpass filter references (A)",
            "type": "number"
        },
        "highpass": {
            "description": "Highpass filter (A)",
            "type": "number"
        },
        "angpix_ref": {
            "description": "Pixel size in references (A)",
            "type": "number"
        },
        "psi_sampling_autopick": {
            "description": "In-plane angular sampling (deg)",
            "type": "number"
        },
        "threshold_autopick": {
            "description": "Picking threshold:",
            "type": "number"
        },
        "mindist_autopick": {
            "description": "Minimum inter-particle distance (A):",
            "type": "number"
        },
        "maxstddevnoise_autopick": {
            "description": "Maximum stddev noise:",
            "type": "number"
        },
        "minavgnoise_autopick": {
            "description": "Minimum avg noise:",
            "type": "number"
        }
    }
}