{
    "$schema": "http://json-schema.org/draft-04/schema#",
    "title": "PARMS: relion.extract.helical",
    "description": "Particle extraction of overlapping helical segments",
    "type": "object",
    "properties": {
        "star_mics": {
            "description": "micrograph STAR file:",
            "type": "string"
        },
        "extract_size": {
            "description": "Particle box size (pix):",
            "type": "integer"
        },
        "do_invert": {
            "description": "Invert contrast?",
            "type": "boolean"
        },
        "do_norm": {
            "description": "Normalize particles?",
            "type": "boolean"
        },
        "bg_diameter": {
            "description": "Diameter background circle (pix):",
            "type": "integer"
        },
        "white_dust": {
            "description": "Stddev for white dust removal:",
            "type": "number"
        },
        "black_dust": {
            "description": "Stddev for black dust removal:",
            "type": "number"
        },
        "do_rescale": {
            "description": "Rescale particles?",
            "type": "boolean"
        },
        "rescale": {
            "description": "Re-scaled size (pixels):",
            "type": "integer"
        },
        "do_fom_threshold": {
            "description": "Use autopick FOM threshold?",
            "type": "boolean"
        },
        "minimum_pick_fom": {
            "description": "Minimum autopick FOM:",
            "type": "number"
        },
        "do_float16": {
            "description": "Write output in float16?",
            "type": "boolean"
        },
        "nr_mpi": {
            "description": "Number of MPI procs:",
            "type": "integer"
        },
        "do_queue": {
            "description": "Submit to queue?",
            "type": "boolean"
        },
        "queuename": {
            "description": "Queue name:",
            "type": "string"
        },
        "qsub": {
            "description": "Queue submit command:",
            "type": "string"
        },
        "qsubscript": {
            "description": "Standard submission script:",
            "type": "string"
        },
        "min_dedicated": {
            "description": "Minimum dedicated cores per node:",
            "type": "integer"
        },
        "other_args": {
            "description": "Additional arguments:",
            "type": "string"
        },
        "coords_suffix": {
            "description": "Input coordinates:",
            "type": "string"
        },
        "helical_tube_outer_diameter": {
            "description": "Tube diameter (A):",
            "type": "number"
        },
        "helical_bimodal_angular_priors": {
            "description": "Use bimodal angular priors?",
            "type": "boolean"
        },
        "do_extract_helical_tubes": {
            "description": "Coordinates are start-end only?",
            "type": "boolean"
        },
        "do_cut_into_segments": {
            "description": "Cut helical tubes into segments?",
            "type": "boolean"
        },
        "helical_nr_asu": {
            "description": "Number of unique asymmetrical units:",
            "type": "integer"
        },
        "helical_rise": {
            "description": "Helical rise (A):",
            "type": "number"
        }
    }
}