{
    "$schema": "http://json-schema.org/draft-04/schema#",
    "title": "PARMS: relion.autopick.continuemanual",
    "description": "Manually modify the results of a RELION AutoPick job",
    "type": "object",
    "properties": {
        "fn_input_autopick": {
            "description": "Input micrographs for autopick:",
            "type": "string"
        },
        "angpix": {
            "description": "Pixel size in micrographs (A)",
            "type": "number"
        },
        "do_write_fom_maps": {
            "description": "Write FOM maps?",
            "type": "boolean"
        },
        "do_read_fom_maps": {
            "description": "Read FOM maps?",
            "type": "boolean"
        },
        "shrink": {
            "description": "Shrink factor:",
            "type": "number"
        },
        "nr_mpi": {
            "description": "Number of MPI procs:",
            "type": "integer"
        },
        "do_queue": {
            "description": "Submit to queue?",
            "type": "boolean"
        },
        "queuename": {
            "description": "Queue name:",
            "type": "string"
        },
        "qsub": {
            "description": "Queue submit command:",
            "type": "string"
        },
        "qsubscript": {
            "description": "Standard submission script:",
            "type": "string"
        },
        "min_dedicated": {
            "description": "Minimum dedicated cores per node:",
            "type": "integer"
        },
        "other_args": {
            "description": "Additional arguments:",
            "type": "string"
        }
    }
}