{
    "$schema": "http://json-schema.org/draft-04/schema#",
    "title": "PARMS: relion.select.interactive",
    "description": "Interactively select images through the RELION GUI",
    "type": "object",
    "properties": {
        "fn_model": {
            "description": "Select classes from model.star:",
            "type": "string"
        },
        "fn_mic": {
            "description": "OR select from micrographs.star:",
            "type": "string"
        },
        "fn_data": {
            "description": "OR select from particles.star:",
            "type": "string"
        },
        "do_regroup": {
            "description": "Regroup the particles?",
            "type": "boolean"
        },
        "nr_groups": {
            "description": "Approximate nr of groups:",
            "type": "integer"
        },
        "image_angpix": {
            "description": "Pixel size before extraction (A)",
            "type": "number"
        },
        "do_queue": {
            "description": "Submit to queue?",
            "type": "boolean"
        },
        "queuename": {
            "description": "Queue name:",
            "type": "string"
        },
        "qsub": {
            "description": "Queue submit command:",
            "type": "string"
        },
        "qsubscript": {
            "description": "Standard submission script:",
            "type": "string"
        },
        "min_dedicated": {
            "description": "Minimum dedicated cores per node:",
            "type": "integer"
        },
        "other_args": {
            "description": "Additional arguments:",
            "type": "string"
        },
        "do_recenter": {
            "description": "Re-center the class averages?",
            "type": "boolean"
        }
    }
}