{
    "$schema": "http://json-schema.org/draft-04/schema#",
    "title": "PARMS: relion.polish",
    "description": "'Polish' particles with per-particle motion correction",
    "type": "object",
    "properties": {
        "fn_mic": {
            "description": "Micrographs (from MotionCorr):",
            "type": "string"
        },
        "fn_data": {
            "description": "Particles (from Refine3D or CtfRefine):",
            "type": "string"
        },
        "fn_post": {
            "description": "Postprocess STAR file:",
            "type": "string"
        },
        "first_frame": {
            "description": "First movie frame:",
            "type": "integer"
        },
        "last_frame": {
            "description": "Last movie frame:",
            "type": "integer"
        },
        "sigma_acc": {
            "description": "Sigma for acceleration (A/dose):",
            "type": "number"
        },
        "nr_mpi": {
            "description": "Number of MPI procs:",
            "type": "integer"
        },
        "nr_threads": {
            "description": "Number of threads:",
            "type": "integer"
        },
        "do_queue": {
            "description": "Submit to queue?",
            "type": "boolean"
        },
        "queuename": {
            "description": "Queue name:",
            "type": "string"
        },
        "qsub": {
            "description": "Queue submit command:",
            "type": "string"
        },
        "qsubscript": {
            "description": "Standard submission script:",
            "type": "string"
        },
        "min_dedicated": {
            "description": "Minimum dedicated cores per node:",
            "type": "integer"
        },
        "other_args": {
            "description": "Additional arguments:",
            "type": "string"
        },
        "extract_size": {
            "description": "Extraction size (pix in unbinned movie):",
            "type": "number"
        },
        "rescale": {
            "description": "Re-scaled size (pixels):",
            "type": "integer"
        },
        "opt_params": {
            "description": "Optimised parameter file:",
            "type": "string"
        },
        "do_own_params": {
            "description": "OR use your own parameters?",
            "type": "boolean"
        },
        "sigma_vel": {
            "description": "Sigma for velocity (A/dose):",
            "type": "number"
        },
        "sigma_div": {
            "description": "Sigma for divergence (A):",
            "type": "number"
        },
        "minres": {
            "description": "Minimum resolution for B-factor fit (A):",
            "type": "number"
        },
        "maxres": {
            "description": "Maximum resolution for B-factor fit (A):",
            "type": "number"
        }
    }
}