{
    "$schema": "http://json-schema.org/draft-04/schema#",
    "title": "PARMS: relion.external",
    "description": "Run programs through RELION's external job function",
    "type": "object",
    "properties": {
        "fn_exe": {
            "description": "External executable:",
            "type": "string"
        },
        "in_mov": {
            "description": "Input movies:",
            "type": "string"
        },
        "in_mic": {
            "description": "Input micrographs:",
            "type": "string"
        },
        "in_part": {
            "description": "Input particles:",
            "type": "string"
        },
        "in_coords": {
            "description": "Input coordinates:",
            "type": "string"
        },
        "in_3dref": {
            "description": "Input 3D reference:",
            "type": "string"
        },
        "in_mask": {
            "description": "Input 3D mask:",
            "type": "string"
        },
        "param1_label": {
            "description": "Param1 - label:",
            "type": "string"
        },
        "param1_value": {
            "description": "Param1 - value:",
            "type": "string"
        },
        "param2_label": {
            "description": "Param2 - label:",
            "type": "string"
        },
        "param2_value": {
            "description": "Param2 - value:",
            "type": "string"
        },
        "param3_label": {
            "description": "Param3 - label:",
            "type": "string"
        },
        "param3_value": {
            "description": "Param3 - value:",
            "type": "string"
        },
        "param4_label": {
            "description": "Param4 - label:",
            "type": "string"
        },
        "param4_value": {
            "description": "Param4 - value:",
            "type": "string"
        },
        "param5_label": {
            "description": "Param5 - label:",
            "type": "string"
        },
        "param5_value": {
            "description": "Param5 - value:",
            "type": "string"
        },
        "param6_label": {
            "description": "Param6 - label:",
            "type": "string"
        },
        "param6_value": {
            "description": "Param6 - value:",
            "type": "string"
        },
        "param7_label": {
            "description": "Param7 - label:",
            "type": "string"
        },
        "param7_value": {
            "description": "Param7 - value:",
            "type": "string"
        },
        "param8_label": {
            "description": "Param8 - label:",
            "type": "string"
        },
        "param8_value": {
            "description": "Param8 - value:",
            "type": "string"
        },
        "param9_label": {
            "description": "Param9 - label:",
            "type": "string"
        },
        "param9_value": {
            "description": "Param9 - value:",
            "type": "string"
        },
        "param10_label": {
            "description": "Param10 - label:",
            "type": "string"
        },
        "param10_value": {
            "description": "Param10 - value:",
            "type": "string"
        },
        "nr_threads": {
            "description": "Number of threads:",
            "type": "integer"
        },
        "do_queue": {
            "description": "Submit to queue?",
            "type": "boolean"
        },
        "queuename": {
            "description": "Queue name:",
            "type": "string"
        },
        "qsub": {
            "description": "Queue submit command:",
            "type": "string"
        },
        "qsubscript": {
            "description": "Standard submission script:",
            "type": "string"
        },
        "min_dedicated": {
            "description": "Minimum dedicated cores per node:",
            "type": "integer"
        },
        "other_args": {
            "description": "Additional arguments:",
            "type": "string"
        },
        "fn_output": {
            "description": "Output file name (optional):",
            "type": "string"
        },
        "output_nodetype": {
            "description": "Output node type (optional):",
            "type": "string"
        }
    }
}