{
    "$schema": "http://json-schema.org/draft-04/schema#",
    "title": "PARMS: relion.subtract.revert",
    "description": "Revert subtracted particle images to their original particles",
    "type": "object",
    "properties": {
        "fn_fliplabel": {
            "description": "revert this particle star file:",
            "type": "string"
        },
        "do_queue": {
            "description": "Submit to queue?",
            "type": "boolean"
        },
        "queuename": {
            "description": "Queue name:",
            "type": "string"
        },
        "qsub": {
            "description": "Queue submit command:",
            "type": "string"
        },
        "qsubscript": {
            "description": "Standard submission script:",
            "type": "string"
        },
        "min_dedicated": {
            "description": "Minimum dedicated cores per node:",
            "type": "integer"
        },
        "other_args": {
            "description": "Additional arguments:",
            "type": "string"
        }
    }
}