{
    "$schema": "http://json-schema.org/draft-04/schema#",
    "title": "PARMS: relion.localres.resmap",
    "description": "Calculate local resolution with ResMap",
    "type": "object",
    "properties": {
        "fn_in": {
            "description": "One of the 2 unfiltered half-maps:",
            "type": "string"
        },
        "angpix": {
            "description": "Calibrated pixel size (A)",
            "type": "number"
        },
        "fn_mask": {
            "description": "User-provided solvent mask:",
            "type": "string"
        },
        "do_resmap_locres": {
            "description": "Use ResMap?",
            "type": "boolean"
        },
        "fn_resmap": {
            "description": "ResMap executable:",
            "type": "string"
        },
        "pval": {
            "description": "P-value:",
            "type": "number"
        },
        "minres": {
            "description": "Highest resolution (A):",
            "type": "number"
        },
        "maxres": {
            "description": "Lowest resolution (A):",
            "type": "number"
        },
        "stepres": {
            "description": "Resolution step size (A)",
            "type": "number"
        },
        "other_args": {
            "description": "Additional arguments:",
            "type": "string"
        }
    }
}