{
    "$schema": "http://json-schema.org/draft-04/schema#",
    "title": "PARMS: relion.ctfrefine.anisomag",
    "description": "Estimate magnification anisotropy in the data",
    "type": "object",
    "properties": {
        "fn_data": {
            "description": "Particles (from Refine3D):",
            "type": "string"
        },
        "fn_post": {
            "description": "Postprocess STAR file:",
            "type": "string"
        },
        "minres": {
            "description": "Minimum resolution for fits (A):",
            "type": "number"
        },
        "nr_mpi": {
            "description": "Number of MPI procs:",
            "type": "integer"
        },
        "nr_threads": {
            "description": "Number of threads:",
            "type": "integer"
        },
        "do_queue": {
            "description": "Submit to queue?",
            "type": "boolean"
        },
        "queuename": {
            "description": "Queue name:",
            "type": "string"
        },
        "qsub": {
            "description": "Queue submit command:",
            "type": "string"
        },
        "qsubscript": {
            "description": "Standard submission script:",
            "type": "string"
        },
        "min_dedicated": {
            "description": "Minimum dedicated cores per node:",
            "type": "integer"
        },
        "other_args": {
            "description": "Additional arguments:",
            "type": "string"
        }
    }
}