{
  "$schema": "http://json-schema.org/draft-04/schema#",
  "title": "RESULTS: icebreaker.micrograph_analysis.summary",
  "description": "Calculate five figure summary of the  distriubtion of relative ice thickness",
  "type": "object",
  "properties": {
    "run parameters": {
      "description": "Complete parameters used for running the job",
      "$ref": "parameters/params_icebreaker_micrograph_analysis_summary.json"
    },
    "results": {
      "description": "Data on the results of the job",
      "$ref": "results/results_icebreaker_micrograph_analysis_summary.json"
    }
  }
}