{
    "$schema": "http://json-schema.org/draft-04/schema#",
    "title": "RESULTS: relion.initialmodel",
    "description": "Create a de novo 3D initial model",
    "type": "object",
    "properties": {
        "run parameters": {
            "description": "Complete parameters used for running the job",
            "$ref": "parameters/params_relion_initialmodel.json"
        },
        "results": {
            "description": "Data on the results of the job",
            "$ref": "results/results_relion_initialmodel.json"
        }
    }
}