{
    "$schema": "http://json-schema.org/draft-04/schema#",
    "title": "RESULTS: relion.polish",
    "description": "'Polish' particles with per-particle motion correction",
    "type": "object",
    "properties": {
        "run parameters": {
            "description": "Complete parameters used for running the job",
            "$ref": "parameters/params_relion_polish.json"
        },
        "results": {
            "description": "Data on the results of the job",
            "$ref": "results/results_relion_polish.json"
        }
    }
}