{
    "$schema": "http://json-schema.org/draft-04/schema#",
    "title": "RESULTS: relion.select.class2dauto",
    "description": "Automated selection of 2D class averages",
    "type": "object",
    "properties": {
        "run parameters": {
            "description": "Complete parameters used for running the job",
            "$ref": "parameters/params_relion_select_class2dauto.json"
        },
        "results": {
            "description": "Data on the results of the job",
            "$ref": "results/results_relion_select_class2dauto.json"
        }
    }
}