{
    "$schema": "http://json-schema.org/draft-04/schema#",
    "title": "RESULTS: relion.polish.train",
    "description": "Produce a set of optimized parameters for relion particle polishing",
    "type": "object",
    "properties": {
        "run parameters": {
            "description": "Complete parameters used for running the job",
            "$ref": "parameters/params_relion_polish_train.json"
        },
        "results": {
            "description": "Data on the results of the job",
            "$ref": "results/results_relion_polish_train.json"
        }
    }
}