{
	"$schema": "http://json-schema.org/draft-04/schema#",
	"title": "RESULTS: relion.import.movies",
	"description": "A job that imports raw micrograph movies in the relion format",
	"type": "object",
	
	"properties": {
		"OutputFiles": {
			"description": "Output nodes added to the pipeline",
			"type": "array",
			"Items": {
				"type": "string"
			}
		},
		"MovieCount": {
			"description": "Number of movies imported",
			"type": "integer"
		}
	}
}